IMBd Crawler
…
Examples

Now you can go to IMDb and search for any series, I will show two examples of to know series.

The Joy of Painting (Seasons 1-3)

The Joy of Painting, can we say anything more that beautiful oil paintings on canvas by Bob Ross?

Joy_Painting <- all_seasons("https://www.imdb.com/title/tt0383795/episodes?season=", 3)

Joy_Painting

# A tibble: 39 × 6
   Season episode_air_date episode_name        episode_rate episode_vo…¹ episo…²
    <int> <chr>            <chr>               <chr>        <chr>        <chr>  
 1      1 11 Jan. 1983     A Walk in the Woods 9.1          (91)         "Bob R…
 2      1 11 Jan. 1983     Mt. McKinley        9.4          (74)         "Bob p…
 3      1 18 Jan. 1983     Ebony Sunset        9.2          (62)         "Bob u…
 4      1 25 Jan. 1983     Winter Mist         9.2          (56)         "Bob p…
 5      1 1 Feb. 1983      Quiet Stream        9.1          (55)         "Bob p…
 6      1 8 Feb. 1983      Winter Moon         9.4          (53)         "Anoth…
 7      1 15 Feb. 1983     Autumn Mountains    9.4          (49)         "An al…
 8      1 22 Feb. 1983     Peaceful Valley     9.4          (48)         "Bob p…
 9      1 1 Mar. 1983      Seascape            9.3          (51)         "Bob p…
10      1 8 Mar. 1983      Mountain Lake       9.4          (50)         "Bob p…
# … with 29 more rows, and abbreviated variable names ¹​episode_votes,
#   ²​episode_description
…
